\relax 
\catcode`"\active
\catcode`<\active
\catcode`>\active
\@nameuse{es@quoting}
\ifx\hyper@anchor\@undefined
\global \let \oldcontentsline\contentsline
\gdef \contentsline#1#2#3#4{\oldcontentsline{#1}{#2}{#3}}
\global \let \oldnewlabel\newlabel
\gdef \newlabel#1#2{\newlabelxx{#1}#2}
\gdef \newlabelxx#1#2#3#4#5#6{\oldnewlabel{#1}{{#2}{#3}}}
\AtEndDocument{\let \contentsline\oldcontentsline
\let \newlabel\oldnewlabel}
\else
\global \let \hyper@last\relax 
\fi

\select@language{spanish}
\@writefile{toc}{\select@language{spanish}}
\@writefile{lof}{\select@language{spanish}}
\@writefile{lot}{\select@language{spanish}}
\@writefile{toc}{\contentsline {section}{\numberline {1}Problema 1}{3}{section.1}}
\@writefile{toc}{\contentsline {subsection}{\numberline {1.1}Introducci\'on}{3}{subsection.1.1}}
\@writefile{toc}{\contentsline {subsubsection}{\numberline {1.1.1}Ejemplo 1: Instancia arbitraria}{3}{subsubsection.1.1.1}}
\@writefile{toc}{\contentsline {subsubsection}{\numberline {1.1.2}Ejemplo 2: Instancia en la que se utiliza 1 solo cami\'on:}{4}{subsubsection.1.1.2}}
\@writefile{toc}{\contentsline {subsubsection}{\numberline {1.1.3}Instancia donde se utilizan igual cantidad camiones que de paquetes:}{4}{subsubsection.1.1.3}}
\@writefile{toc}{\contentsline {subsection}{\numberline {1.2}Desarrollo}{4}{subsection.1.2}}
\@writefile{toc}{\contentsline {paragraph}{}{4}{section*.2}}
\@writefile{toc}{\contentsline {paragraph}{}{4}{section*.3}}
\@writefile{toc}{\contentsline {paragraph}{}{4}{section*.4}}
\@writefile{toc}{\contentsline {subsection}{\numberline {1.3}Pseudoc\'odigo}{4}{subsection.1.3}}
\@writefile{toc}{\contentsline {paragraph}{}{5}{section*.5}}
\@writefile{loa}{\contentsline {algorithm}{\numberline {1.1}{\ignorespaces Tupla$<$Entero, Lista$<$Camion$>$$>$ cargaDeCamiones(Entero limiteCamion, Lista $<$Enteros$>$ paquetes)}}{5}{algorithm.1.1}}
\newlabel{max_pb}{{1.1}{5}{\relax }{algorithm.1.1}{}}
\@writefile{lof}{\contentsline {figure}{\numberline {1}{\ignorespaces Pseudoc\'odigo del algoritmo principal de ''Pascual y el correo''}}{5}{figure.1}}
\newlabel{fig:Carga de Camiones}{{1}{5}{Pseudoc\'odigo del algoritmo principal de ''Pascual y el correo''\relax }{figure.1}{}}
\@writefile{toc}{\contentsline {subsection}{\numberline {1.4}Correctitud}{5}{subsection.1.4}}
\citation{compSort}
\citation{compSort}
\citation{addList}
\@writefile{toc}{\contentsline {subsection}{\numberline {1.5}Complejidad}{6}{subsection.1.5}}
\@writefile{toc}{\contentsline {subsection}{\numberline {1.6}Tests}{6}{subsection.1.6}}
\@writefile{toc}{\contentsline {paragraph}{}{6}{section*.6}}
\@writefile{toc}{\contentsline {subsubsection}{\numberline {1.6.1}Instancia arbitraria: }{6}{subsubsection.1.6.1}}
\citation{random}
\citation{random}
\@writefile{toc}{\contentsline {subsubsection}{\numberline {1.6.2}Instancia que utiliza 1 solo cami\'on: }{7}{subsubsection.1.6.2}}
\@writefile{toc}{\contentsline {subsubsection}{\numberline {1.6.3}Instancia que necesita $n$ camiones: }{7}{subsubsection.1.6.3}}
\@writefile{toc}{\contentsline {subsubsection}{\numberline {1.6.4}Cantidad estimada de instrucciones}{7}{subsubsection.1.6.4}}
\@writefile{toc}{\contentsline {paragraph}{}{7}{section*.7}}
\@writefile{toc}{\contentsline {subsection}{\numberline {1.7}Conclusiones}{7}{subsection.1.7}}
\@writefile{lof}{\contentsline {figure}{\numberline {2}{\ignorespaces Verificaci\'on de Complejidad}}{8}{figure.2}}
\@writefile{toc}{\contentsline {section}{\numberline {2}Problema 2}{8}{section.2}}
\@writefile{toc}{\contentsline {subsection}{\numberline {2.1}Introducci\'on}{8}{subsection.2.1}}
\@writefile{toc}{\contentsline {subsection}{\numberline {2.2}Desarrollo}{8}{subsection.2.2}}
\@writefile{toc}{\contentsline {subsection}{\numberline {2.3}Pseudoc\'odigo}{8}{subsection.2.3}}
\citation{compHeap}
\citation{compSort}
\@writefile{loa}{\contentsline {algorithm}{\numberline {2.1}{\ignorespaces Lista$<$Entero$>$ cursosElegidos(Lista$<$Curso$>$ cursos, Entero cantCursos)}}{9}{algorithm.2.1}}
\newlabel{max_pb}{{2.1}{9}{Pseudoc\'odigo\relax }{algorithm.2.1}{}}
\@writefile{lof}{\contentsline {figure}{\numberline {3}{\ignorespaces Pseudoc\'odigo del algoritmo principal de ''Profesores Visitantes''}}{9}{figure.3}}
\newlabel{fig:cursosElegidos}{{3}{9}{Pseudoc\'odigo del algoritmo principal de ''Profesores Visitantes''\relax }{figure.3}{}}
\@writefile{loa}{\contentsline {algorithm}{\numberline {2.2}{\ignorespaces Booleano seSolapan(Curso c1, Curso c2)}}{9}{algorithm.2.2}}
\newlabel{max_pb}{{2.2}{9}{Pseudoc\'odigo\relax }{algorithm.2.2}{}}
\@writefile{lof}{\contentsline {figure}{\numberline {4}{\ignorespaces Pseudoc\'odigo del algoritmo auxiliar ''seSolapan''}}{9}{figure.4}}
\newlabel{fig:cursosElegidos}{{4}{9}{Pseudoc\'odigo del algoritmo auxiliar ''seSolapan''\relax }{figure.4}{}}
\@writefile{toc}{\contentsline {subsection}{\numberline {2.4}Correctitud}{9}{subsection.2.4}}
\@writefile{toc}{\contentsline {subsection}{\numberline {2.5}Complejidad}{10}{subsection.2.5}}
\@writefile{toc}{\contentsline {subsection}{\numberline {2.6}Conclusiones}{10}{subsection.2.6}}
\@writefile{toc}{\contentsline {section}{\numberline {3}Problema 3}{11}{section.3}}
\@writefile{toc}{\contentsline {subsection}{\numberline {3.1}Introducci\'on}{11}{subsection.3.1}}
\@writefile{toc}{\contentsline {subsection}{\numberline {3.2}Desarrollo}{11}{subsection.3.2}}
\@writefile{toc}{\contentsline {subsection}{\numberline {3.3}Pseudoc\'odigo}{11}{subsection.3.3}}
\@writefile{loa}{\contentsline {algorithm}{\numberline {3.1}{\ignorespaces solucion: conj(sensor) resolucion(T: Tablero)}}{11}{algorithm.3.1}}
\newlabel{max_pb}{{3.1}{11}{Pseudoc\'odigo\relax }{algorithm.3.1}{}}
\@writefile{lof}{\contentsline {figure}{\numberline {5}{\ignorespaces Pseudoc\'odigo del algoritmo principal de ''Museo''}}{11}{figure.5}}
\newlabel{fig:principal backtrack}{{5}{11}{Pseudoc\'odigo del algoritmo principal de ''Museo''\relax }{figure.5}{}}
\@writefile{loa}{\contentsline {algorithm}{\numberline {3.2}{\ignorespaces $bool$ backtrack(libres: secu(casilla), importantesH: conj(casilla), importantesV, conj(casilla),T: tablero, solucion: conj(sensor))}}{12}{algorithm.3.2}}
\newlabel{max_pb}{{3.2}{12}{Pseudoc\'odigo\relax }{algorithm.3.2}{}}
\@writefile{lof}{\contentsline {figure}{\numberline {6}{\ignorespaces Pseudoc\'odigo del algoritmo de backtracking de ''Museo''}}{12}{figure.6}}
\newlabel{fig:Backtrack museo}{{6}{12}{Pseudoc\'odigo del algoritmo de backtracking de ''Museo''\relax }{figure.6}{}}
\@writefile{toc}{\contentsline {section}{\numberline {4}Informe de Modificaciones}{13}{section.4}}
\@writefile{toc}{\contentsline {subsection}{\numberline {4.1}Problema 1}{13}{subsection.4.1}}
\@writefile{toc}{\contentsline {subsubsection}{\numberline {4.1.1}Introducci\'on}{13}{subsubsection.4.1.1}}
\@writefile{toc}{\contentsline {subsubsection}{\numberline {4.1.2}Desarrollo}{13}{subsubsection.4.1.2}}
\@writefile{toc}{\contentsline {subsubsection}{\numberline {4.1.3}Pseudoc\'odigo}{13}{subsubsection.4.1.3}}
\@writefile{toc}{\contentsline {subsubsection}{\numberline {4.1.4}Complejidad}{13}{subsubsection.4.1.4}}
\@writefile{toc}{\contentsline {subsubsection}{\numberline {4.1.5}Tests}{13}{subsubsection.4.1.5}}
\bibcite{compHeap}{1}
\bibcite{compSort}{2}
\bibcite{addList}{3}
\bibcite{random}{4}
