\BOOKMARK [1][-]{section.1}{Problema 1}{}
\BOOKMARK [2][-]{subsection.1.1}{Introducci\363n}{section.1}
\BOOKMARK [3][-]{subsubsection.1.1.1}{Ejemplo 1: Instancia arbitraria}{subsection.1.1}
\BOOKMARK [3][-]{subsubsection.1.1.2}{Ejemplo 2: Instancia en la que se utiliza 1 solo cami\363n:}{subsection.1.1}
\BOOKMARK [3][-]{subsubsection.1.1.3}{Instancia donde se utilizan igual cantidad camiones que de paquetes:}{subsection.1.1}
\BOOKMARK [2][-]{subsection.1.2}{Desarrollo}{section.1}
\BOOKMARK [2][-]{subsection.1.3}{Pseudoc\363digo}{section.1}
\BOOKMARK [2][-]{subsection.1.4}{Correctitud}{section.1}
\BOOKMARK [2][-]{subsection.1.5}{Complejidad}{section.1}
\BOOKMARK [2][-]{subsection.1.6}{Tests}{section.1}
\BOOKMARK [3][-]{subsubsection.1.6.1}{Instancia arbitraria: }{subsection.1.6}
\BOOKMARK [3][-]{subsubsection.1.6.2}{Instancia que utiliza 1 solo cami\363n: }{subsection.1.6}
\BOOKMARK [3][-]{subsubsection.1.6.3}{Instancia que necesita n camiones: }{subsection.1.6}
\BOOKMARK [3][-]{subsubsection.1.6.4}{Cantidad estimada de instrucciones}{subsection.1.6}
\BOOKMARK [2][-]{subsection.1.7}{Conclusiones}{section.1}
\BOOKMARK [1][-]{section.2}{Problema 2}{}
\BOOKMARK [2][-]{subsection.2.1}{Introducci\363n}{section.2}
\BOOKMARK [2][-]{subsection.2.2}{Desarrollo}{section.2}
\BOOKMARK [2][-]{subsection.2.3}{Pseudoc\363digo}{section.2}
\BOOKMARK [2][-]{subsection.2.4}{Correctitud}{section.2}
\BOOKMARK [2][-]{subsection.2.5}{Complejidad}{section.2}
\BOOKMARK [2][-]{subsection.2.6}{Conclusiones}{section.2}
\BOOKMARK [1][-]{section.3}{Problema 3}{}
\BOOKMARK [2][-]{subsection.3.1}{Introducci\363n}{section.3}
\BOOKMARK [2][-]{subsection.3.2}{Desarrollo}{section.3}
\BOOKMARK [2][-]{subsection.3.3}{Pseudoc\363digo}{section.3}
\BOOKMARK [1][-]{section.4}{Informe de Modificaciones}{}
\BOOKMARK [2][-]{subsection.4.1}{Problema 1}{section.4}
\BOOKMARK [3][-]{subsubsection.4.1.1}{Introducci\363n}{subsection.4.1}
\BOOKMARK [3][-]{subsubsection.4.1.2}{Desarrollo}{subsection.4.1}
\BOOKMARK [3][-]{subsubsection.4.1.3}{Pseudoc\363digo}{subsection.4.1}
\BOOKMARK [3][-]{subsubsection.4.1.4}{Complejidad}{subsection.4.1}
\BOOKMARK [3][-]{subsubsection.4.1.5}{Tests}{subsection.4.1}
