\relax 
\catcode`"\active
\catcode`<\active
\catcode`>\active
\@nameuse{es@quoting}
\catcode`'\active
\select@language{spanish}
\@writefile{toc}{\select@language{spanish}}
\@writefile{lof}{\select@language{spanish}}
\@writefile{lot}{\select@language{spanish}}
\@writefile{toc}{\contentsline {section}{\numberline {1}Problema 1: Pascual y el correo}{3}}
\@writefile{toc}{\contentsline {subsection}{\numberline {1.1}Introducci\'on}{3}}
\@writefile{toc}{\contentsline {subsection}{\numberline {1.2}Algoritmo}{3}}
\@writefile{loa}{\contentsline {algorithm}{\numberline {1}{\ignorespaces Tupla$<$Entero, Lista$<$Camion$>$$>$ cargaDeCamiones(Entero limiteCamion, Entero cantPaquetes, Lista $<$Enteros$>$ paquetes)\relax }}{4}}
\providecommand*\caption@xref[2]{\@setref\relax\@undefined{#1}}
\newlabel{max_pb}{{1}{4}}
\@writefile{lof}{\contentsline {figure}{\numberline {1}{\ignorespaces Pseudoc\'odigo del algoritmo principal de ''Pascual y el correo''\relax }}{4}}
\newlabel{fig:Carga de Camiones}{{1}{4}}
\@writefile{toc}{\contentsline {subsection}{\numberline {1.3}Desarrollo}{4}}
\@writefile{toc}{\contentsline {subsection}{\numberline {1.4}Correctitud}{4}}
\citation{compHeap}
\citation{compHeap}
\@writefile{toc}{\contentsline {subsection}{\numberline {1.5}Complejidad}{5}}
\@writefile{toc}{\contentsline {subsection}{\numberline {1.6}Testing}{5}}
\@writefile{toc}{\contentsline {subsection}{\numberline {1.7}Conclusiones}{5}}
\@writefile{toc}{\contentsline {section}{\numberline {2}Problema 2: Profesores Visitantes}{6}}
\@writefile{toc}{\contentsline {subsection}{\numberline {2.1}Introducci\'on}{6}}
\@writefile{toc}{\contentsline {subsection}{\numberline {2.2}Algoritmo}{6}}
\@writefile{loa}{\contentsline {algorithm}{\numberline {2}{\ignorespaces Lista$<$Entero$>$ cursosElegidos(Lista$<$Curso$>$ cursos, Entero cantCursos)\relax }}{7}}
\newlabel{max_pb}{{2}{7}}
\@writefile{lof}{\contentsline {figure}{\numberline {2}{\ignorespaces Pseudoc\'odigo del algoritmo principal de ''Profesores Visitantes''\relax }}{7}}
\newlabel{fig:cursosElegidos}{{2}{7}}
\@writefile{toc}{\contentsline {section}{\numberline {3}Problema 3: Una Noche en el Museo}{8}}
\bibcite{compHeap}{1}
